1. Neighborhood Deprivation Indices
…
EMP
Employment
B23001 (2010 only); B23025 (2011 onward)
Percent unemployed

messer2010GA <- messer(state = 'GA', year = 2010, round_output = TRUE)

One output from the messer() function is a tibble
containing the identification, geographic name, NDI (Messer)
values, and raw census characteristics for each tract.

messer2010GA$ndi

## # A tibble: 1,969 × 14
##    GEOID state county tract     NDI NDIQuart   OCC   CWD   POV   FHH   PUB   U30
##    <chr> <chr> <chr>  <chr>   <dbl> <fct>    <dbl> <dbl> <dbl> <dbl> <dbl> <dbl>
##  1 1300… Geor… Appli… 9501  -0.0075 2-Below…     0   0     0.1   0.1   0.1   0.3
##  2 1300… Geor… Appli… 9502   0.0458 4-Most …     0   0     0.3   0.1   0.2   0.5
##  3 1300… Geor… Appli… 9503   0.0269 3-Above…     0   0     0.2   0     0.2   0.4
##  4 1300… Geor… Appli… 9504  -0.0083 2-Below…     0   0     0.1   0     0.1   0.3
##  5 1300… Geor… Appli… 9505   0.0231 3-Above…     0   0     0.2   0     0.2   0.4
##  6 1300… Geor… Atkin… 9601   0.0619 4-Most …     0   0.1   0.2   0.2   0.2   0.5
##  7 1300… Geor… Atkin… 9602   0.0593 4-Most …     0   0.1   0.3   0.1   0.2   0.4
##  8 1300… Geor… Atkin… 9603   0.0252 3-Above…     0   0     0.3   0.1   0.2   0.4
##  9 1300… Geor… Bacon… 9701   0.0061 3-Above…     0   0     0.2   0     0.2   0.4
## 10 1300… Geor… Bacon… 9702…  0.0121 3-Above…     0   0     0.2   0.1   0.1   0.5
## # ℹ 1,959 more rows
## # ℹ 2 more variables: EDU <dbl>, EMP <dbl>
…
powell_wiley2020DMVW <- powell_wiley(
  state = c('DC', 'MD', 'VA', 'WV'),
  year = 2020,
  round_output = TRUE
)

One output from the powell_wiley() function is a tibble
containing the identification, geographic name, NDI
(Powell-Wiley) values, and raw census characteristics for each
tract.

powell_wiley2020DMVW$ndi

## # A tibble: 4,425 × 20
##    GEOID       state  county tract   NDI NDIQuint MedHHInc PctRecvIDR PctPubAsst
##    <chr>       <chr>  <chr>  <chr> <dbl> <fct>       <dbl>      <dbl>      <dbl>
##  1 11001000101 Distr… Distr… 1.01  -2.13 1-Least…   187839       50.9        0.8
##  2 11001000102 Distr… Distr… 1.02  -2.46 1-Least…   184167       52.2        0.6
##  3 11001000201 Distr… Distr… 2.01  NA    9-NDI n…       NA      NaN        NaN  
##  4 11001000202 Distr… Distr… 2.02  -2.30 1-Least…   164261       49.6        0.9
##  5 11001000300 Distr… Distr… 3     -2.06 1-Least…   156483       46          0.6
##  6 11001000400 Distr… Distr… 4     -2.09 1-Least…   153397       47.8        0  
##  7 11001000501 Distr… Distr… 5.01  -2.11 1-Least…   119911       44.5        0.8
##  8 11001000502 Distr… Distr… 5.02  -2.21 1-Least…   153264       46.8        0.5
##  9 11001000600 Distr… Distr… 6     -2.16 1-Least…   154266       60.8        7.4
## 10 11001000702 Distr… Distr… 7.02  -1.20 1-Least…    71747       22.9        0  
## # ℹ 4,415 more rows
## # ℹ 11 more variables: MedHomeVal <dbl>, PctMgmtBusScArti <dbl>,
## #   PctFemHeadKids <dbl>, PctOwnerOcc <dbl>, PctNoPhone <dbl>,
## #   PctNComPlmb <dbl>, PctEducHSPlus <dbl>, PctEducBchPlus <dbl>,
## #   PctFamBelowPov <dbl>, PctUnempl <dbl>, TotalPop <dbl>
…
