ndi: Neighborhood Deprivation Indices
…
EMP
Employment
B23001 (2010 only); B23025 (2011 onward)
Percent unemployed

messer2010GA <- ndi::messer(state = "GA", year = 2010)

One output from messer() function is tibble containing
the identification, geographic name, NDI (Messer) values, and raw census
characteristics for each tract.

messer2010GA$ndi

## # A tibble: 1,969 × 14
##    GEOID  state county tract     NDI NDIQu…¹   OCC   CWD   POV   FHH   PUB   U30
##    <chr>  <chr> <chr>  <chr>   <dbl> <fct>   <dbl> <dbl> <dbl> <dbl> <dbl> <dbl>
##  1 13001… Geor… Appli… 9501  -0.0075 2-Belo…     0   0     0.1   0.1   0.1   0.3
##  2 13001… Geor… Appli… 9502   0.0458 4-Most…     0   0     0.3   0.1   0.2   0.5
##  3 13001… Geor… Appli… 9503   0.0269 3-Abov…     0   0     0.2   0     0.2   0.4
##  4 13001… Geor… Appli… 9504  -0.0083 2-Belo…     0   0     0.1   0     0.1   0.3
##  5 13001… Geor… Appli… 9505   0.0231 3-Abov…     0   0     0.2   0     0.2   0.4
##  6 13003… Geor… Atkin… 9601   0.0619 4-Most…     0   0.1   0.2   0.2   0.2   0.5
##  7 13003… Geor… Atkin… 9602   0.0593 4-Most…     0   0.1   0.3   0.1   0.2   0.4
##  8 13003… Geor… Atkin… 9603   0.0252 3-Abov…     0   0     0.3   0.1   0.2   0.4
##  9 13005… Geor… Bacon… 9701   0.0061 3-Abov…     0   0     0.2   0     0.2   0.4
## 10 13005… Geor… Bacon… 9702…  0.0121 3-Abov…     0   0     0.2   0.1   0.1   0.5
## # … with 1,959 more rows, 2 more variables: EDU <dbl>, EMP <dbl>, and
## #   abbreviated variable name ¹​NDIQuart
## # ℹ Use `print(n = ...)` to see more rows, and `colnames()` to see all variable names
…
More information about the codebook
and computation
of the NDI (Powell-Wiley) can be found on a GIS Portal for
Cancer Research website.

powell_wiley2020DMVW <- ndi::powell_wiley(state = c("DC", "MD", "VA", "WV"), year = 2020)

One output from powell_wiley() function is tibble
containing the identification, geographic name, NDI (Powell-Wiley)
values, and raw census characteristics for each tract.

powell_wiley2020DMVW$ndi

## # A tibble: 4,425 × 20
##    GEOID       state  county tract   NDI NDIQu…¹ MedHH…² PctRe…³ PctPu…⁴ MedHo…⁵
##    <chr>       <chr>  <chr>  <chr> <dbl> <fct>     <dbl>   <dbl>   <dbl>   <dbl>
##  1 11001000101 Distr… Distr… 1.01  -2.13 1-Leas…  187839    50.9     0.8  699100
##  2 11001000102 Distr… Distr… 1.02  -2.46 1-Leas…  184167    52.2     0.6 1556000
##  3 11001000201 Distr… Distr… 2.01  NA    9-NDI …      NA   NaN     NaN        NA
##  4 11001000202 Distr… Distr… 2.02  -2.30 1-Leas…  164261    49.6     0.9 1309100
##  5 11001000300 Distr… Distr… 3     -2.06 1-Leas…  156483    46       0.6  976500
##  6 11001000400 Distr… Distr… 4     -2.09 1-Leas…  153397    47.8     0   1164200
##  7 11001000501 Distr… Distr… 5.01  -2.11 1-Leas…  119911    44.5     0.8  674600
##  8 11001000502 Distr… Distr… 5.02  -2.21 1-Leas…  153264    46.8     0.5 1012500
##  9 11001000600 Distr… Distr… 6     -2.16 1-Leas…  154266    60.8     7.4 1109800
## 10 11001000702 Distr… Distr… 7.02  -1.20 1-Leas…   71747    22.9     0    289900
## # … with 4,415 more rows, 10 more variables: PctMgmtBusScArti <dbl>,
## #   PctFemHeadKids <dbl>, PctOwnerOcc <dbl>, PctNoPhone <dbl>,
## #   PctNComPlmb <dbl>, PctEducHSPlus <dbl>, PctEducBchPlus <dbl>,
## #   PctFamBelowPov <dbl>, PctUnempl <dbl>, TotalPop <dbl>, and abbreviated
## #   variable names ¹​NDIQuint, ²​MedHHInc, ³​PctRecvIDR, ⁴​PctPubAsst, ⁵​MedHomeVal
## # ℹ Use `print(n = ...)` to see more rows, and `colnames()` to see all variable names
…
us <- tigris::states()
n51 <- c("Commonwealth of the Northern Mariana Islands", "Guam", "American Samoa",
         "Puerto Rico", "United States Virgin Islands")
y51 <- us$STUSPS[!(us$NAME %in% n51)]

start_time <- Sys.time() # record start time
powell_wiley2017US <- ndi::powell_wiley(state = y51, year = 2017)
end_time <- Sys.time() # record end time
time_srr <- end_time - start_time # Calculate run time
powell_wiley2017US

## $ndi
## # A tibble: 73,056 × 20
##    GEOID     state county tract      NDI NDIQu…¹ MedHH…² PctRe…³ PctPu…⁴ MedHo…⁵
##    <chr>     <chr> <chr>  <chr>    <dbl> <fct>     <dbl>   <dbl>   <dbl>   <dbl>
##  1 01001020… Alab… Autau… 201   -2.51e-1 2-Belo…   67826    26.9    12.1  152500
##  2 01001020… Alab… Autau… 202    8.27e-1 4-Abov…   41287    10.9    24.1   96100
##  3 01001020… Alab… Autau… 203    6.63e-1 4-Abov…   46806    12.3    12.9   98900
##  4 01001020… Alab… Autau… 204    1.90e-1 3-Aver…   55895    17.8     5.7  140800
##  5 01001020… Alab… Autau… 205   -5.44e-1 2-Belo…   68143    20.2     8.8  187900
##  6 01001020… Alab… Autau… 206    7.26e-1 4-Abov…   44549    17.8    16     93300
##  7 01001020… Alab… Autau… 207    1.03e+0 5-Most…   41250     8.4    23.2   90800
##  8 01001020… Alab… Autau… 208.… -7.12e-1 2-Belo…   80089    25.7    13.1  299100
##  9 01001020… Alab… Autau… 208.… -3.76e-4 3-Aver…   64439    22.2     9.4  163200
## 10 01001020… Alab… Autau… 209    5.07e-1 4-Abov…   49469    11.6    19    120200
## # … with 73,046 more rows, 10 more variables: PctMgmtBusScArti <dbl>,
## #   PctFemHeadKids <dbl>, PctOwnerOcc <dbl>, PctNoPhone <dbl>,
## #   PctNComPlmb <dbl>, PctEducHSPlus <dbl>, PctEducBchPlus <dbl>,
## #   PctFamBelowPov <dbl>, PctUnempl <dbl>, TotalPop <dbl>, and abbreviated
## #   variable names ¹​NDIQuint, ²​MedHHInc, ³​PctRecvIDR, ⁴​PctPubAsst, ⁵​MedHomeVal
## # ℹ Use `print(n = ...)` to see more rows, and `colnames()` to see all variable names
## 
## $pca
## $pca$loadings
…
